<?xml version="1.0" encoding="UTF-8" standalone="no"?>
<graphml xmlns="http://graphml.graphdrawing.org/xmlns" xmlns:java="http://www.yworks.com/xml/yfiles-common/1.0/java" xmlns:sys="http://www.yworks.com/xml/yfiles-common/markup/primitives/2.0" xmlns:x="http://www.yworks.com/xml/yfiles-common/markup/2.0" xmlns:xsi="http://www.w3.org/2001/XMLSchema-instance" xmlns:y="http://www.yworks.com/xml/graphml" xmlns:yed="http://www.yworks.com/xml/yed/3" xsi:schemaLocation="http://graphml.graphdrawing.org/xmlns http://www.yworks.com/xml/schema/graphml/1.1/ygraphml.xsd">
  <!--Created by yEd 3.23.1-->
  <key for="port" id="d0" yfiles.type="portgraphics"/>
  <key for="port" id="d1" yfiles.type="portgeometry"/>
  <key for="port" id="d2" yfiles.type="portuserdata"/>
  <key attr.name="url" attr.type="string" for="node" id="d3"/>
  <key attr.name="description" attr.type="string" for="node" id="d4"/>
  <key for="node" id="d5" yfiles.type="nodegraphics"/>
  <key for="graphml" id="d6" yfiles.type="resources"/>
  <key attr.name="url" attr.type="string" for="edge" id="d7"/>
  <key attr.name="description" attr.type="string" for="edge" id="d8"/>
  <key for="edge" id="d9" yfiles.type="edgegraphics"/>
  <graph edgedefault="directed" id="G">
    <node id="n0">
      <data key="d5">
        <y:GenericNode configuration="com.yworks.flowchart.start1">
          <y:Geometry height="30.0" width="157.0" x="6.5" y="-349.68"/>
          <y:Fill color="#D2DEEE" transparent="false"/>
          <y:BorderStyle cap="0" color="#000000" dashPhase="0.0" join="0" miterLimit="10.0" type="custom" width="1.0"/>
          <y:NodeLabel alignment="center" autoSizePolicy="node_size" fontFamily="'Arial'" fontSize="12" fontStyle="plain" hasBackgroundColor="false" hasLineColor="false" height="30.0" horizontalTextPosition="center" iconTextGap="4" modelName="custom" textColor="#000000" verticalTextPosition="bottom" visible="true" width="157.0" x="0.0" xml:space="preserve" y="0.0">Начало<y:LabelModel><y:SmartNodeLabelModel distance="4.0"/></y:LabelModel><y:ModelParameter><y:SmartNodeLabelModelParameter labelRatioX="-0.5" labelRatioY="-0.5" nodeRatioX="-0.5" nodeRatioY="-0.5" offsetX="0.0" offsetY="0.0" upX="0.0" upY="-1.0"/></y:ModelParameter></y:NodeLabel>
        </y:GenericNode>
      </data>
    </node>
    <node id="n1">
      <data key="d5">
        <y:GenericNode configuration="com.yworks.flowchart.process">
          <y:Geometry height="55.0" width="151.0" x="9.5" y="-178.5"/>
          <y:Fill color="#D2DEEE" transparent="false"/>
          <y:BorderStyle cap="0" color="#000000" dashPhase="0.0" join="0" miterLimit="10.0" type="custom" width="1.0"/>
          <y:NodeLabel alignment="center" autoSizePolicy="node_size" fontFamily="'Arial'" fontSize="12" fontStyle="plain" hasBackgroundColor="false" hasLineColor="false" height="55.0" horizontalTextPosition="center" iconTextGap="4" modelName="custom" textColor="#000000" verticalTextPosition="bottom" visible="true" width="151.0" x="0.0" xml:space="preserve" y="0.0">Процесс 1<y:LabelModel><y:SmartNodeLabelModel distance="4.0"/></y:LabelModel><y:ModelParameter><y:SmartNodeLabelModelParameter labelRatioX="-0.5" labelRatioY="-0.5" nodeRatioX="-0.5" nodeRatioY="-0.5" offsetX="0.0" offsetY="0.0" upX="0.0" upY="-1.0"/></y:ModelParameter></y:NodeLabel>
        </y:GenericNode>
      </data>
    </node>
    <node id="n2">
      <data key="d5">
        <y:GenericNode configuration="com.yworks.flowchart.process">
          <y:Geometry height="55.0" width="151.0" x="9.5" y="17.680000000000007"/>
          <y:Fill color="#D2DEEE" transparent="false"/>
          <y:BorderStyle cap="0" color="#000000" dashPhase="0.0" join="0" miterLimit="10.0" type="custom" width="1.0"/>
          <y:NodeLabel alignment="center" autoSizePolicy="node_size" fontFamily="'Arial'" fontSize="12" fontStyle="plain" hasBackgroundColor="false" hasLineColor="false" height="55.0" horizontalTextPosition="center" iconTextGap="4" modelName="custom" textColor="#000000" verticalTextPosition="bottom" visible="true" width="151.0" x="0.0" xml:space="preserve" y="0.0">Процесс 2<y:LabelModel><y:SmartNodeLabelModel distance="4.0"/></y:LabelModel><y:ModelParameter><y:SmartNodeLabelModelParameter labelRatioX="-0.5" labelRatioY="-0.5" nodeRatioX="-0.5" nodeRatioY="-0.5" offsetX="0.0" offsetY="0.0" upX="0.0" upY="-1.0"/></y:ModelParameter></y:NodeLabel>
        </y:GenericNode>
      </data>
    </node>
    <node id="n3">
      <data key="d5">
        <y:GenericNode configuration="com.yworks.flowchart.terminator">
          <y:Geometry height="40.0" width="80.0" x="45.0" y="128.68"/>
          <y:Fill color="#E8EEF7" color2="#B7C9E3" transparent="false"/>
          <y:BorderStyle color="#000000" type="line" width="1.0"/>
          <y:NodeLabel alignment="center" autoSizePolicy="content" fontFamily="Dialog" fontSize="12" fontStyle="plain" hasBackgroundColor="false" hasLineColor="false" height="18.701171875" horizontalTextPosition="center" iconTextGap="4" modelName="custom" textColor="#000000" verticalTextPosition="bottom" visible="true" width="37.837890625" x="21.0810546875" xml:space="preserve" y="10.6494140625">Конец<y:LabelModel><y:SmartNodeLabelModel distance="4.0"/></y:LabelModel><y:ModelParameter><y:SmartNodeLabelModelParameter labelRatioX="0.0" labelRatioY="0.0" nodeRatioX="0.0" nodeRatioY="0.0" offsetX="0.0" offsetY="0.0" upX="0.0" upY="-1.0"/></y:ModelParameter></y:NodeLabel>
        </y:GenericNode>
      </data>
    </node>
    <node id="n4">
      <data key="d5">
        <y:GenericNode configuration="com.yworks.flowchart.decision">
          <y:Geometry height="40.0" width="80.0" x="45.0" y="-78.32"/>
          <y:Fill color="#E8EEF7" color2="#B7C9E3" transparent="false"/>
          <y:BorderStyle color="#000000" type="line" width="1.0"/>
          <y:NodeLabel alignment="center" autoSizePolicy="content" fontFamily="Dialog" fontSize="12" fontStyle="plain" hasBackgroundColor="false" hasLineColor="false" height="18.701171875" horizontalTextPosition="center" iconTextGap="4" modelName="custom" textColor="#000000" verticalTextPosition="bottom" visible="true" width="54.53125" x="12.734375" xml:space="preserve" y="10.6494140625">Вопрос 2<y:LabelModel><y:SmartNodeLabelModel distance="4.0"/></y:LabelModel><y:ModelParameter><y:SmartNodeLabelModelParameter labelRatioX="0.0" labelRatioY="0.0" nodeRatioX="0.0" nodeRatioY="0.0" offsetX="0.0" offsetY="0.0" upX="0.0" upY="-1.0"/></y:ModelParameter></y:NodeLabel>
        </y:GenericNode>
      </data>
    </node>
    <edge id="e0" source="n2" target="n3">
      <data key="d9">
        <y:PolyLineEdge>
          <y:Path sx="0.0" sy="0.0" tx="0.0" ty="0.0"/>
          <y:LineStyle color="#000000" type="line" width="1.0"/>
          <y:Arrows source="none" target="standard"/>
          <y:BendStyle smoothed="false"/>
        </y:PolyLineEdge>
      </data>
    </edge>
    <edge id="e1" source="n1" target="n4">
      <data key="d9">
        <y:PolyLineEdge>
          <y:Path sx="0.0" sy="0.0" tx="0.0" ty="0.0"/>
          <y:LineStyle color="#000000" type="line" width="1.0"/>
          <y:Arrows source="none" target="standard"/>
          <y:BendStyle smoothed="false"/>
        </y:PolyLineEdge>
      </data>
    </edge>
    <edge id="e2" source="n4" target="n2">
      <data key="d9">
        <y:PolyLineEdge>
          <y:Path sx="0.0" sy="0.0" tx="0.0" ty="0.0"/>
          <y:LineStyle color="#000000" type="line" width="1.0"/>
          <y:Arrows source="none" target="standard"/>
          <y:BendStyle smoothed="false"/>
        </y:PolyLineEdge>
      </data>
    </edge>
    <edge id="e3" source="n4" target="n3">
      <data key="d9">
        <y:PolyLineEdge>
          <y:Path sx="0.0" sy="0.0" tx="0.0" ty="-5.2673299999999585">
            <y:Point x="-30.43925999999999" y="-58.31999999999999"/>
            <y:Point x="-51.559259999999995" y="-58.31999999999999"/>
            <y:Point x="-51.559259999999995" y="97.97267000000005"/>
            <y:Point x="85.0" y="97.97267000000005"/>
          </y:Path>
          <y:LineStyle color="#000000" type="line" width="1.0"/>
          <y:Arrows source="none" target="standard"/>
          <y:BendStyle smoothed="false"/>
        </y:PolyLineEdge>
      </data>
    </edge>
    <edge id="e4" source="n0" target="n1">
      <data key="d8"/>
      <data key="d9">
        <y:PolyLineEdge>
          <y:Path sx="0.0" sy="0.0" tx="0.0" ty="0.0"/>
          <y:LineStyle color="#000000" type="line" width="1.0"/>
          <y:Arrows source="none" target="standard"/>
          <y:BendStyle smoothed="false"/>
        </y:PolyLineEdge>
      </data>
    </edge>
  </graph>
  <data key="d6">
    <y:Resources/>
  </data>
</graphml>
